{
  "ndkVersionFromDsl": "21.3.6528147",
  "sdkFolder": "C:\\Users\\Thet Naing Swe\\AppData\\Local\\Android\\Sdk",
  "sideBySideNdkFolderNames": [
    "21.1.6352462",
    "21.3.6528147",
    "24.0.7856742"
  ]
}